{
  "data": {
    "curPage": 1,
    "datas": [
      {
        "apkLink": "",
        "audit": 1,
        "author": "",
        "canEdit": false,
        "chapterId": 502,
        "chapterName": "自助",
        "collect": false,
        "courseId": 13,
        "desc": "",
        "descMd": "",
        "envelopePic": "",
        "fresh": true,
        "host": "",
        "id": 16991,
        "link": "https://blog.csdn.net/jankingmeaning/article/details/112919460",
        "niceDate": "4小时前",
        "niceShareDate": "4小时前",
        "origin": "",
        "prefix": "",
        "projectLink": "",
        "publishTime": 1611199223000,
        "realSuperChapterId": 493,
        "selfVisible": 0,
        "shareDate": 1611199223000,
        "shareUser": "Janking",
        "superChapterId": 494,
        "superChapterName": "广场Tab",
        "tags": [],
        "title": "深入讨论kotlin中的object初始化时机，到底是饿汉还是懒汉？",
        "type": 0,
        "userId": 84859,
        "visible": 1,
        "zan": 0
      },
      {
        "apkLink": "",
        "audit": 1,
        "author": "wangpeiyuan",
        "canEdit": false,
        "chapterId": 539,
        "chapterName": "未分类",
        "collect": false,
        "courseId": 13,
        "desc": "支持无限自动轮播\r\n支持圆点指示符及自定义\r\n支持一屏显示 3 个 item 的切换效果",
        "descMd": "",
        "envelopePic": "https://www.wanandroid.com/blogimgs/0cf83825-9ca8-4843-9629-9a586ba5a2af.png",
        "fresh": true,
        "host": "",
        "id": 16988,
        "link": "https://www.wanandroid.com/blog/show/2916",
        "niceDate": "15小时前",
        "niceShareDate": "15小时前",
        "origin": "",
        "prefix": "",
        "projectLink": "https://github.com/wangpeiyuan/CycleViewPager2",
        "publishTime": 1611158643000,
        "realSuperChapterId": 293,
        "selfVisible": 0,
        "shareDate": 1611158643000,
        "shareUser": "",
        "superChapterId": 294,
        "superChapterName": "开源项目主Tab",
        "tags": [
          {
            "name": "项目",
            "url": "/project/list/1?cid=539"
          }
        ],
        "title": "CycleViewPager2 - 使用 ViewPager2 实现无限轮播效果，可以用来实现 banner",
        "type": 0,
        "userId": -1,
        "visible": 1,
        "zan": 0
      },
      {
        "apkLink": "",
        "audit": 1,
        "author": "LinYaoTian",
        "canEdit": false,
        "chapterId": 539,
        "chapterName": "未分类",
        "collect": false,
        "courseId": 13,
        "desc": "使用 LiveData 去实现 EventBus，代码非常短，可以直接拷贝到项目中使用。\r\n\r\n支持：\r\n粘性消息（observeSticky）\r\n非粘性消息（observe）\r\n不受组件生命周期影响的订阅（observeForever）\r\n\r\n相关文章：https://juejin.im/post/5dce5b16f265da0ba5279b11",
        "descMd": "",
        "envelopePic": "https://www.wanandroid.com/blogimgs/4d95d5fd-418f-4b72-bd3f-cb3c552d210c.png",
        "fresh": true,
        "host": "",
        "id": 16987,
        "link": "https://www.wanandroid.com/blog/show/2915",
        "niceDate": "15小时前",
        "niceShareDate": "15小时前",
        "origin": "",
        "prefix": "",
        "projectLink": "https://github.com/LinYaoTian/LiveDataBus",
        "publishTime": 1611158581000,
        "realSuperChapterId": 293,
        "selfVisible": 0,
        "shareDate": 1611158581000,
        "shareUser": "",
        "superChapterId": 294,
        "superChapterName": "开源项目主Tab",
        "tags": [
          {
            "name": "项目",
            "url": "/project/list/1?cid=539"
          }
        ],
        "title": "使用 LiveData 实现 EventBus",
        "type": 0,
        "userId": -1,
        "visible": 1,
        "zan": 0
      },
      {
        "apkLink": "",
        "audit": 1,
        "author": "shouzhong",
        "canEdit": false,
        "chapterId": 539,
        "chapterName": "未分类",
        "collect": false,
        "courseId": 13,
        "desc": "二维码/条码识别、身份证识别、银行卡识别、车牌识别、图片文字识别、黄图识别",
        "descMd": "",
        "envelopePic": "https://www.wanandroid.com/blogimgs/9828c0e2-5e53-408a-ae29-5648205a3306.png",
        "fresh": false,
        "host": "",
        "id": 16976,
        "link": "https://www.wanandroid.com/blog/show/2914",
        "niceDate": "1天前",
        "niceShareDate": "1天前",
        "origin": "",
        "prefix": "",
        "projectLink": "https://github.com/shouzhong/Scanner",
        "publishTime": 1611074427000,
        "realSuperChapterId": 293,
        "selfVisible": 0,
        "shareDate": 1611074427000,
        "shareUser": "",
        "superChapterId": 294,
        "superChapterName": "开源项目主Tab",
        "tags": [
          {
            "name": "项目",
            "url": "/project/list/1?cid=539"
          }
        ],
        "title": "二维码/条码识别、身份证识别、银行卡识别、车牌识别、图片文字识别、黄图识别 ",
        "type": 0,
        "userId": -1,
        "visible": 1,
        "zan": 0
      },
      {
        "apkLink": "",
        "audit": 1,
        "author": "YoungTime",
        "canEdit": false,
        "chapterId": 539,
        "chapterName": "未分类",
        "collect": false,
        "courseId": 13,
        "desc": "支持左滑菜单栏的 RecyclerView",
        "descMd": "",
        "envelopePic": "https://www.wanandroid.com/blogimgs/6bc3f47c-61f1-454d-838c-dcf358df00f6.png",
        "fresh": false,
        "host": "",
        "id": 16975,
        "link": "https://www.wanandroid.com/blog/show/2913",
        "niceDate": "1天前",
        "niceShareDate": "1天前",
        "origin": "",
        "prefix": "",
        "projectLink": "https://github.com/YoungTime/SlideRecyclerView",
        "publishTime": 1611074125000,
        "realSuperChapterId": 293,
        "selfVisible": 0,
        "shareDate": 1611074125000,
        "shareUser": "",
        "superChapterId": 294,
        "superChapterName": "开源项目主Tab",
        "tags": [
          {
            "name": "项目",
            "url": "/project/list/1?cid=539"
          }
        ],
        "title": "SlideRecyclerView &middot; 支持左滑菜单栏的 RecyclerView",
        "type": 0,
        "userId": -1,
        "visible": 1,
        "zan": 0
      },
      {
        "apkLink": "",
        "audit": 1,
        "author": "",
        "canEdit": false,
        "chapterId": 458,
        "chapterName": "mmap",
        "collect": false,
        "courseId": 13,
        "desc": "",
        "descMd": "",
        "envelopePic": "",
        "fresh": false,
        "host": "",
        "id": 16962,
        "link": "https://zhuanlan.zhihu.com/p/94771420",
        "niceDate": "1天前",
        "niceShareDate": "1天前",
        "origin": "",
        "prefix": "",
        "projectLink": "",
        "publishTime": 1611072930000,
        "realSuperChapterId": 457,
        "selfVisible": 0,
        "shareDate": 1611045238000,
        "shareUser": "鸿洋",
        "superChapterId": 458,
        "superChapterName": "linux",
        "tags": [],
        "title": "Linux 进程管理与调度 - 知乎",
        "type": 0,
        "userId": 2,
        "visible": 1,
        "zan": 0
      },
      {
        "apkLink": "",
        "audit": 1,
        "author": "",
        "canEdit": false,
        "chapterId": 313,
        "chapterName": "字节码",
        "collect": false,
        "courseId": 13,
        "desc": "",
        "descMd": "",
        "envelopePic": "",
        "fresh": false,
        "host": "",
        "id": 16971,
        "link": "https://juejin.cn/post/6919121581180616718",
        "niceDate": "1天前",
        "niceShareDate": "1天前",
        "origin": "",
        "prefix": "",
        "projectLink": "",
        "publishTime": 1611072811000,
        "realSuperChapterId": 244,
        "selfVisible": 0,
        "shareDate": 1611072607000,
        "shareUser": "鸿洋",
        "superChapterId": 245,
        "superChapterName": "Java深入",
        "tags": [],
        "title": "Android 虚拟机 | 从类加载到程序执行",
        "type": 0,
        "userId": 2,
        "visible": 1,
        "zan": 0
      },
      {
        "apkLink": "",
        "audit": 1,
        "author": "",
        "canEdit": false,
        "chapterId": 169,
        "chapterName": "gradle",
        "collect": false,
        "courseId": 13,
        "desc": "",
        "descMd": "",
        "envelopePic": "",
        "fresh": false,
        "host": "",
        "id": 16972,
        "link": "https://www.jianshu.com/p/206d00dfd683",
        "niceDate": "1天前",
        "niceShareDate": "1天前",
        "origin": "",
        "prefix": "",
        "projectLink": "",
        "publishTime": 1611072801000,
        "realSuperChapterId": 150,
        "selfVisible": 0,
        "shareDate": 1611072716000,
        "shareUser": "鸿洋",
        "superChapterId": 60,
        "superChapterName": "开发环境",
        "tags": [],
        "title": "Gradle 插件 + ASM 实战 - 监控图片加载告警",
        "type": 0,
        "userId": 2,
        "visible": 1,
        "zan": 0
      },
      {
        "apkLink": "",
        "audit": 1,
        "author": "鸿洋",
        "canEdit": false,
        "chapterId": 408,
        "chapterName": "鸿洋",
        "collect": false,
        "courseId": 13,
        "desc": "",
        "descMd": "",
        "envelopePic": "",
        "fresh": false,
        "host": "",
        "id": 16983,
        "link": "https://mp.weixin.qq.com/s/Mv_jOGwxMCbc1meFx5QJnQ",
        "niceDate": "1天前",
        "niceShareDate": "15小时前",
        "origin": "",
        "prefix": "",
        "projectLink": "",
        "publishTime": 1611072000000,
        "realSuperChapterId": 407,
        "selfVisible": 0,
        "shareDate": 1611158383000,
        "shareUser": "",
        "superChapterId": 408,
        "superChapterName": "公众号",
        "tags": [
          {
            "name": "公众号",
            "url": "/wxarticle/list/408/1"
          }
        ],
        "title": "Android 避坑指南：Gson 又搞了个坑！",
        "type": 0,
        "userId": -1,
        "visible": 1,
        "zan": 0
      },
      {
        "apkLink": "",
        "audit": 1,
        "author": "谷歌开发者",
        "canEdit": false,
        "chapterId": 415,
        "chapterName": "谷歌开发者",
        "collect": false,
        "courseId": 13,
        "desc": "",
        "descMd": "",
        "envelopePic": "",
        "fresh": false,
        "host": "",
        "id": 16984,
        "link": "https://mp.weixin.qq.com/s/vNf9rDt3RxDPVacR9-e7Yw",
        "niceDate": "1天前",
        "niceShareDate": "15小时前",
        "origin": "",
        "prefix": "",
        "projectLink": "",
        "publishTime": 1611072000000,
        "realSuperChapterId": 407,
        "selfVisible": 0,
        "shareDate": 1611158396000,
        "shareUser": "",
        "superChapterId": 408,
        "superChapterName": "公众号",
        "tags": [
          {
            "name": "公众号",
            "url": "/wxarticle/list/415/1"
          }
        ],
        "title": "全新的 Fragment: 使用新的状态管理器",
        "type": 0,
        "userId": -1,
        "visible": 1,
        "zan": 0
      },
      {
        "apkLink": "",
        "audit": 1,
        "author": "谷歌开发者",
        "canEdit": false,
        "chapterId": 415,
        "chapterName": "谷歌开发者",
        "collect": false,
        "courseId": 13,
        "desc": "",
        "descMd": "",
        "envelopePic": "",
        "fresh": false,
        "host": "",
        "id": 16985,
        "link": "https://mp.weixin.qq.com/s/9cm83YC6zUw_uAe6tsMy4Q",
        "niceDate": "1天前",
        "niceShareDate": "15小时前",
        "origin": "",
        "prefix": "",
        "projectLink": "",
        "publishTime": 1611072000000,
        "realSuperChapterId": 407,
        "selfVisible": 0,
        "shareDate": 1611158410000,
        "shareUser": "",
        "superChapterId": 408,
        "superChapterName": "公众号",
        "tags": [
          {
            "name": "公众号",
            "url": "/wxarticle/list/415/1"
          }
        ],
        "title": "Jetpack 成员 Hilt 实践 (一) 启程过坑记 | 开发者说&middot;DTalk",
        "type": 0,
        "userId": -1,
        "visible": 1,
        "zan": 0
      },
      {
        "apkLink": "",
        "audit": 1,
        "author": "郭霖",
        "canEdit": false,
        "chapterId": 409,
        "chapterName": "郭霖",
        "collect": false,
        "courseId": 13,
        "desc": "",
        "descMd": "",
        "envelopePic": "",
        "fresh": false,
        "host": "",
        "id": 16986,
        "link": "https://mp.weixin.qq.com/s/gPmAvylpDJj148Wtvz5pbQ",
        "niceDate": "1天前",
        "niceShareDate": "15小时前",
        "origin": "",
        "prefix": "",
        "projectLink": "",
        "publishTime": 1611072000000,
        "realSuperChapterId": 407,
        "selfVisible": 0,
        "shareDate": 1611158422000,
        "shareUser": "",
        "superChapterId": 408,
        "superChapterName": "公众号",
        "tags": [
          {
            "name": "公众号",
            "url": "/wxarticle/list/409/1"
          }
        ],
        "title": "像使用Activity一样使用Fragment",
        "type": 0,
        "userId": -1,
        "visible": 1,
        "zan": 0
      },
      {
        "apkLink": "",
        "audit": 1,
        "author": "",
        "canEdit": false,
        "chapterId": 502,
        "chapterName": "自助",
        "collect": false,
        "courseId": 13,
        "desc": "",
        "descMd": "",
        "envelopePic": "",
        "fresh": false,
        "host": "",
        "id": 16960,
        "link": "https://juejin.cn/post/6844904100090347528",
        "niceDate": "2天前",
        "niceShareDate": "2天前",
        "origin": "",
        "prefix": "",
        "projectLink": "",
        "publishTime": 1611036657000,
        "realSuperChapterId": 493,
        "selfVisible": 0,
        "shareDate": 1611036657000,
        "shareUser": "不怕天黑",
        "superChapterId": 494,
        "superChapterName": "广场Tab",
        "tags": [],
        "title": "RxHttp ，比Retrofit 更优雅的协程体验",
        "type": 0,
        "userId": 35902,
        "visible": 1,
        "zan": 0
      },
      {
        "apkLink": "",
        "audit": 1,
        "author": "m-zylab",
        "canEdit": false,
        "chapterId": 539,
        "chapterName": "未分类",
        "collect": false,
        "courseId": 13,
        "desc": "之前看到一位作者开源了一款手绘风格的图表库 Chart.xkcd，感觉很是喜欢。\r\n当然仅仅图表是满足不了我滴，于是想看看 Android 上是否有类似的开源库，一番搜索之后，颗粒无收。\r\n想想原理可能不是太难，于是花点时间动手写了一个。因而此项目就诞生了。",
        "descMd": "",
        "envelopePic": "https://www.wanandroid.com/blogimgs/82d8d292-5062-48c3-9d12-29d28e9ee38a.png",
        "fresh": false,
        "host": "",
        "id": 16956,
        "link": "https://www.wanandroid.com/blog/show/2910",
        "niceDate": "2天前",
        "niceShareDate": "2天前",
        "origin": "",
        "prefix": "",
        "projectLink": "https://github.com/m-zylab/SketchyComponent",
        "publishTime": 1610989585000,
        "realSuperChapterId": 293,
        "selfVisible": 0,
        "shareDate": 1610989585000,
        "shareUser": "",
        "superChapterId": 294,
        "superChapterName": "开源项目主Tab",
        "tags": [
          {
            "name": "项目",
            "url": "/project/list/1?cid=539"
          }
        ],
        "title": "一款手绘风格的组件库",
        "type": 0,
        "userId": -1,
        "visible": 1,
        "zan": 0
      },
      {
        "apkLink": "",
        "audit": 1,
        "author": "Hankkin",
        "canEdit": false,
        "chapterId": 294,
        "chapterName": "完整项目",
        "collect": false,
        "courseId": 13,
        "desc": "JetpackNote 是一款基于谷歌官方组件Jetpack开发的笔记项目，项目中包含了对各大组件的源码分析、Demo使用：Navigation、Lifecycles、Paging、LiveData、ViewModel等...",
        "descMd": "",
        "envelopePic": "https://www.wanandroid.com/blogimgs/d9d0967f-d6b9-4abe-ae1f-054a1030c4a6.png",
        "fresh": false,
        "host": "",
        "id": 16955,
        "link": "https://www.wanandroid.com/blog/show/2909",
        "niceDate": "2天前",
        "niceShareDate": "2天前",
        "origin": "",
        "prefix": "",
        "projectLink": "https://github.com/Hankkin/JetPack_Note",
        "publishTime": 1610989434000,
        "realSuperChapterId": 293,
        "selfVisible": 0,
        "shareDate": 1610989434000,
        "shareUser": "",
        "superChapterId": 294,
        "superChapterName": "开源项目主Tab",
        "tags": [
          {
            "name": "项目",
            "url": "/project/list/1?cid=294"
          }
        ],
        "title": "JetpackNote---基于Jetpack的学习笔记APP",
        "type": 0,
        "userId": -1,
        "visible": 1,
        "zan": 0
      },
      {
        "apkLink": "",
        "audit": 1,
        "author": "yzbkaka",
        "canEdit": false,
        "chapterId": 294,
        "chapterName": "完整项目",
        "collect": false,
        "courseId": 13,
        "desc": "一款基于Android的时间管理APP，主要采用Litepal框架进行数据库存储。页面简洁，功能实用。注释详尽，尽力符合规范。比较适合新手Android开发者进行练手。\r\n\r\n",
        "descMd": "",
        "envelopePic": "https://www.wanandroid.com/blogimgs/54602cb2-aa6a-4d59-a546-1282454d9439.png",
        "fresh": false,
        "host": "",
        "id": 16954,
        "link": "https://www.wanandroid.com/blog/show/2908",
        "niceDate": "2天前",
        "niceShareDate": "2天前",
        "origin": "",
        "prefix": "",
        "projectLink": "https://github.com/yzbkaka/Schedule",
        "publishTime": 1610989321000,
        "realSuperChapterId": 293,
        "selfVisible": 0,
        "shareDate": 1610989321000,
        "shareUser": "",
        "superChapterId": 294,
        "superChapterName": "开源项目主Tab",
        "tags": [
          {
            "name": "项目",
            "url": "/project/list/1?cid=294"
          }
        ],
        "title": "[新手向] 时间管理App&mdash;&mdash;Schedule",
        "type": 0,
        "userId": -1,
        "visible": 1,
        "zan": 0
      },
      {
        "apkLink": "",
        "audit": 1,
        "author": "鸿洋",
        "canEdit": false,
        "chapterId": 408,
        "chapterName": "鸿洋",
        "collect": false,
        "courseId": 13,
        "desc": "",
        "descMd": "",
        "envelopePic": "",
        "fresh": false,
        "host": "",
        "id": 16973,
        "link": "https://mp.weixin.qq.com/s/LaEbPaIKu0TNR0ygI-yOSQ",
        "niceDate": "2天前",
        "niceShareDate": "1天前",
        "origin": "",
        "prefix": "",
        "projectLink": "",
        "publishTime": 1610985600000,
        "realSuperChapterId": 407,
        "selfVisible": 0,
        "shareDate": 1611073833000,
        "shareUser": "",
        "superChapterId": 408,
        "superChapterName": "公众号",
        "tags": [
          {
            "name": "公众号",
            "url": "/wxarticle/list/408/1"
          }
        ],
        "title": "阿里 ARouter 全面解析，总有你没了解的",
        "type": 0,
        "userId": -1,
        "visible": 1,
        "zan": 0
      },
      {
        "apkLink": "",
        "audit": 1,
        "author": "郭霖",
        "canEdit": false,
        "chapterId": 409,
        "chapterName": "郭霖",
        "collect": false,
        "courseId": 13,
        "desc": "",
        "descMd": "",
        "envelopePic": "",
        "fresh": false,
        "host": "",
        "id": 16974,
        "link": "https://mp.weixin.qq.com/s/84fSUYQt3T_Fa5B5s5ihvA",
        "niceDate": "2天前",
        "niceShareDate": "1天前",
        "origin": "",
        "prefix": "",
        "projectLink": "",
        "publishTime": 1610985600000,
        "realSuperChapterId": 407,
        "selfVisible": 0,
        "shareDate": 1611073846000,
        "shareUser": "",
        "superChapterId": 408,
        "superChapterName": "公众号",
        "tags": [
          {
            "name": "公众号",
            "url": "/wxarticle/list/409/1"
          }
        ],
        "title": "使用协程，让网络世界更加美好",
        "type": 0,
        "userId": -1,
        "visible": 1,
        "zan": 0
      },
      {
        "apkLink": "",
        "audit": 1,
        "author": "",
        "canEdit": false,
        "chapterId": 502,
        "chapterName": "自助",
        "collect": false,
        "courseId": 13,
        "desc": "",
        "descMd": "",
        "envelopePic": "",
        "fresh": false,
        "host": "",
        "id": 16948,
        "link": "https://juejin.cn/post/6918733287015841800/",
        "niceDate": "2021-01-18 10:32",
        "niceShareDate": "2021-01-18 10:32",
        "origin": "",
        "prefix": "",
        "projectLink": "",
        "publishTime": 1610937159000,
        "realSuperChapterId": 493,
        "selfVisible": 0,
        "shareDate": 1610937159000,
        "shareUser": "逮虾户",
        "superChapterId": 494,
        "superChapterName": "广场Tab",
        "tags": [],
        "title": "Lambda引发的惨案 | Transform进阶教程",
        "type": 0,
        "userId": 63284,
        "visible": 1,
        "zan": 0
      }
    ],
    "offset": 0,
    "over": false,
    "pageCount": 495,
    "size": 20,
    "total": 9896
  },
  "errorCode": 0,
  "errorMsg": ""
}